…
restaurants$cuisine_description[str_detect(restaurants$cuisine_description, "Latin")] <- "Latin" 

theme_set(theme_light())

Inspections per borough per year

There’s only data for the past couple of years (since 2011), but I started by looking at the number of inspections per borough per year. As mentioned above, each row in the data set corresponds to a violation uncovered during an inspection - so a single inspection of one restaurant might have multiple rows documenting multiple violations. For example:

restaurants %>% 
  filter(dba == "12 CHAIRS") %>%
  dplyr::select(camis, dba, inspection_date, violation_code) %>%
  arrange(inspection_date)

## # A tibble: 34 x 4
##       camis dba       inspection_date violation_code
##       <dbl> <chr>     <date>          <chr>         
##  1 41006043 12 CHAIRS 2016-06-21      02H           
##  2 41006043 12 CHAIRS 2016-06-21      02G           
##  3 41006043 12 CHAIRS 2016-06-21      04J           
##  4 41006043 12 CHAIRS 2016-06-21      05F           
##  5 41006043 12 CHAIRS 2016-06-22      10B           
##  6 41006043 12 CHAIRS 2016-07-21      06C           
##  7 41006043 12 CHAIRS 2016-07-21      10F           
##  8 41006043 12 CHAIRS 2016-07-21      06D           
##  9 41006043 12 CHAIRS 2017-03-02      06C           
## 10 41006043 12 CHAIRS 2017-03-02      02G           
## # ... with 24 more rows
…
